<?xml version="1.0" encoding="utf-8"?>
<!-- Generator: Adobe Illustrator 16.0.0, SVG Export Plug-In . SVG Version: 6.00 Build 0)  -->
<!DOCTYPE svg PUBLIC "-//W3C//DTD SVG 1.1//EN" "http://www.w3.org/Graphics/SVG/1.1/DTD/svg11.dtd">
<svg version="1.1" id="Isolation_Mode" xmlns="http://www.w3.org/2000/svg" xmlns:xlink="http://www.w3.org/1999/xlink" x="0px"
	 y="0px" width="62px" height="64px" viewBox="0 0 62 64" enable-background="new 0 0 62 64" xml:space="preserve">
<polyline fill="none" stroke="#00007C" stroke-width="3" stroke-miterlimit="10" points="16.5,26 16.5,18.5 25,18.5 "/>
<polyline fill="none" stroke="#00007C" stroke-width="3" stroke-miterlimit="10" points="37,18.5 44.5,18.5 44.5,26 "/>
<polyline fill="none" stroke="#00007C" stroke-width="3" stroke-miterlimit="10" points="44.5,37 44.5,46.5 37,46.5 "/>
<polyline fill="none" stroke="#00007C" stroke-width="3" stroke-miterlimit="10" points="25,46.5 16.5,46.5 16.5,37 "/>
<line fill="none" stroke="#00007C" stroke-width="2" stroke-linejoin="round" stroke-miterlimit="10" x1="31" y1="25" x2="31" y2="41"/>
<line fill="none" stroke="#00007C" stroke-width="2" stroke-linejoin="round" stroke-miterlimit="10" x1="39" y1="33" x2="23" y2="33"/>
</svg>
