<?xml version="1.0" encoding="utf-8"?>
<!-- Generator: Adobe Illustrator 16.0.0, SVG Export Plug-In . SVG Version: 6.00 Build 0)  -->
<!DOCTYPE svg PUBLIC "-//W3C//DTD SVG 1.1//EN" "http://www.w3.org/Graphics/SVG/1.1/DTD/svg11.dtd">
<svg version="1.1" id="Layer_1" xmlns="http://www.w3.org/2000/svg" xmlns:xlink="http://www.w3.org/1999/xlink" x="0px" y="0px"
	 width="38.375px" height="23px" viewBox="0 0 38.375 23" enable-background="new 0 0 38.375 23" xml:space="preserve">
<line fill="none" stroke="#00007B" stroke-miterlimit="10" x1="13" y1="11.75" x2="33" y2="11.75"/>
<polyline fill="none" stroke="#00007B" stroke-miterlimit="10" points="28.296,7.047 33,11.75 28.296,16.454 "/>
<rect x="7.5" y="6.75" fill="none" stroke="#00007B" stroke-miterlimit="10" stroke-dasharray="1.2,2" width="14" height="11"/>
</svg>
