<?xml version="1.0" encoding="utf-8"?>
<!-- Generator: Adobe Illustrator 16.0.0, SVG Export Plug-In . SVG Version: 6.00 Build 0)  -->
<!DOCTYPE svg PUBLIC "-//W3C//DTD SVG 1.1//EN" "http://www.w3.org/Graphics/SVG/1.1/DTD/svg11.dtd">
<svg version="1.1" id="Layer_1" xmlns="http://www.w3.org/2000/svg" xmlns:xlink="http://www.w3.org/1999/xlink" x="0px" y="0px"
	 width="30px" height="22.5px" viewBox="0 0 30 22.5" enable-background="new 0 0 30 22.5" xml:space="preserve">
<circle fill="none" stroke="#FFFFFF" stroke-width="0.5" stroke-miterlimit="10" cx="19.688" cy="11.417" r="3.75"/>
<circle fill="none" stroke="#FFFFFF" stroke-width="0.5" stroke-miterlimit="10" cx="10.377" cy="11.417" r="3.75"/>
<path fill="none" stroke="#FFFFFF" stroke-width="0.8" stroke-miterlimit="10" d="M12.051,12.109
	c-0.231,0.733-0.873,1.26-1.628,1.26c-0.949,0-1.72-0.834-1.72-1.863c0-1.029,0.771-1.863,1.72-1.863
	c0.755,0,1.396,0.527,1.627,1.261"/>
<line fill="none" stroke="#FFFFFF" stroke-linecap="round" stroke-miterlimit="10" x1="19.688" y1="13.357" x2="19.688" y2="11.417"/>
<circle fill="#FFFFFF" cx="19.688" cy="9.754" r="0.667"/>
</svg>
